{
	"challenge": [
		{ "key": "10000", "data": {"icon":"&#x1F415;","name":"You have run a 10K."} },
		{ "key": "21098", "data": {"icon":"&#x1F406;","name":"You have run a half-marathon."} },
		{ "key": "42195", "data": {"icon":"&#x1F40E;","name":"It's a Spartathlon. But you have run a marathon. It's in the opposite way."} }
	],
	"target": [
		{ "key": "50000", "data": {"name":"50 kilometre checkpoint", "showonmap": true} },
		{ "key": "78210", "data": {"name":"Channeled: You have reached the Corinth Canal [Running in Peloponnese from now on.]"} },
		{ "key": "100000", "data": {"name":"100 kilometre checkpoint", "showonmap": true} },
		{ "key": "150000", "data": {"name":"150 kilometre checkpoint", "showonmap": true} },
		{ "key": "161479", "data": {"icon":"&#26F0;","name":"On The Top [You have reached the highest point of the run.]"} },
		{ "key": "200000", "data": {"name":"200 kilometre checkpoint", "showonmap": true} },
		{ "key": "244182", "data": {"finish":true,"name":"*** Finish ***"} }
	]
}
